[0m2021.08.09 04:55:45 INFO  Started: Metals version 0.10.5 in workspace '/Users/prashantyadav/Personal/Development/Microservices/micronaut/kotlin/user-profile-api' for client Visual Studio Code 1.59.0.[0m
[0m2021.08.09 04:55:51 INFO  time: initialize in 5.77s[0m
[0m2021.08.09 04:55:52 WARN  Build server is not auto-connectable.[0m
[0m2021.08.10 03:56:14 INFO  shutting down Metals[0m
[0m2021.10.28 17:23:26 INFO  Started: Metals version 0.10.8 in workspace '/Users/prashantyadav/Personal/Development/Microservices/micronaut/kotlin/user-profile-api' for client Visual Studio Code 1.61.2.[0m
[0m2021.10.28 17:23:32 INFO  time: initialize in 5.86s[0m
[0m2021.10.28 17:23:45 WARN  Build server is not auto-connectable.[0m
Nov 01, 2021 5:17:58 AM org.eclipse.lsp4j.jsonrpc.services.GenericEndpoint notify
INFO: Unsupported notification method: $/setTrace
[0m2021.11.04 20:11:44 INFO  shutting down Metals[0m
[0m2021.11.04 20:13:44 INFO  Started: Metals version 0.10.9 in workspace '/Users/prashantyadav/Personal/Development/Microservices/micronaut/kotlin/user-profile-api' for client Visual Studio Code 1.62.0.[0m
[0m2021.11.04 20:13:57 INFO  time: initialize in 12s[0m
[0m2021.11.04 20:13:58 WARN  Build server is not auto-connectable.[0m
[0m2021.11.04 20:14:00 INFO  skipping build import with status 'Requested'[0m
[0m2021.11.04 20:18:37 INFO  shutting down Metals[0m
[0m2021.11.09 19:47:02 INFO  Started: Metals version 0.10.9 in workspace '/Users/prashantyadav/Personal/Development/Microservices/micronaut/kotlin/user-profile-api' for client Visual Studio Code 1.62.1.[0m
[0m2021.11.09 19:47:27 INFO  time: initialize in 25s[0m
[0m2021.11.09 19:47:58 WARN  Build server is not auto-connectable.[0m
[0m2021.11.09 19:49:08 INFO  shutting down Metals[0m
